Pool    Range (high - low)  Median
----    ------------------  -------
BP      633 (1001 - 368)    483
Evo     543 (1003 - 460)    680
RE      369 (1035 - 666)    929

Evo+BP(d=0.86)  738 (1001 - 263)    509
Evo+BP(d=2.60)  662 (1002 - 340)    733
RE+BP(d=1.09)   659 (1030 - 371)    499
RE+BP(d=5.03)   750 (1112 - 362)    939
Evo+RE(d=2.97)  370 (1004 - 734)    883
Evo+RE(d=5.13)  272 (1046 - 774)    957
BP+RE+Evo(d=1.36) 793 (1053 - 260)  526
BP+RE+Evo(d=3.51) 751 (1048 - 297)  905

